# Please, don't change the idx

*[idx] 0 [engl] PRESS ANY KEY TO START [trans] DRUK OP EEN TOETS OM TE STARTEN
*[idx] 1 [engl] Enter an event [trans] Meedoen aan toernooi
*[idx] 2 [engl] Practice [trans] Oefenen
*[idx] 3 [engl] Configuration [trans] Instellingen
*[idx] 4 [engl] Credits [trans] Met dank aan
*[idx] 5 [engl] Quit [trans] Afsluiten
*[idx] 6 [engl] Select an event [trans] Kies een toernooi
*[idx] 7 [engl] Select a cup [trans] Kies een bekerwedstrijd
*[idx] 8 [engl] Back [trans] Terug
*[idx] 9 [engl] Continue [trans] Doorgaan
*[idx] 10 [engl] You cannot enter this cup yet [trans] Je kunt nog niet meedoen aan deze wedstrijd

*[idx] 11 [engl] Herring: [trans] Haringen:
*[idx] 12 [engl] Time: [trans] Tijd:
*[idx] 13 [engl] Race! [trans] Racen!
*[idx] 14 [engl] seconds [trans] seconden
*[idx] 15 [engl] Ok [trans] Oké
*[idx] 16 [engl] Congratulations! You won the cup! [trans] Gefeliciteerd - je hebt de bekerwedstrijd gewonnen!
*[idx] 17 [engl] You have reached level [trans] Je zit nu op niveau
*[idx] 18 [engl] Sorry, you didn't advance [trans] Sorry, je niveau gaat niet omhoog
*[idx] 19 [engl] You don't have any lives left [trans] Je hebt geen levens meer
*[idx] 20 [engl] Select a race [trans] Kies een race

*[idx] 21 [engl] Failed, -1 Tuxlive [trans] Mislukt - 1 tuxleven eraf
*[idx] 22 [engl] Success, +/- 0 Tuxlive [trans] Gelukt  - geen tuxleven erbij
*[idx] 23 [engl] Success, +1 Tuxlive [trans] Gelukt  - 1 tuxleven erbij
*[idx] 24 [engl] Success, +2 Tuxlive [trans] Gelukt  - 2 tuxlevens erbij
*[idx] 25 [engl] Race aborted [trans] De race is afgebroken
*[idx] 26 [engl] Score: [trans] Score:
*[idx] 27 [engl] points [trans] punten

*[idx] 28 [engl] Cancel [trans] Annuleren
*[idx] 29 [engl] Loading [trans] Bezig met laden...
*[idx] 30 [engl] Please wait... [trans] Even geduld...

*[idx] 31 [engl] Fullscreen: [trans] Beeldvullend:
*[idx] 32 [engl] Resolution: [trans] Resolutie:
*[idx] 33 [engl] Music volume: [trans] Muziekvolume:
*[idx] 34 [engl] Sound volume: [trans] Geluidseffectvolume:
*[idx] 35 [engl] Language: [trans] Taal:
*[idx] 36 [engl] Level of detail: [trans] Beeldkwaliteit:
*[idx] 37 [engl] Contributed by: [trans] Ingediend door:
*[idx] 38 [engl] Event: [trans] Toernooi:
*[idx] 39 [engl] Cup: [trans] Bekerwedstrijd:
*[idx] 40 [engl] Race Over [trans] De race is afgelopen

*[idx] 41 [engl] For more configuration options, please edit the [trans] Als je meer instellingen wilt aanpassen, bewerk dan het
*[idx] 42 [engl] file 'options.lst' and read the documentation. [trans] bestand 'options.lst' en lees de documentatie.
*[idx] 43 [engl] Help [trans] Hulp
*[idx] 44 [engl] 1, 2, 3 - change view mode [trans] 1, 2, 3 - wijzig de cameramodus
*[idx] 45 [engl] F - hide/show fps display [trans] F - toon/verberg het aantal fps
*[idx] 46 [engl] H - hide/show hud display [trans] H - toon/verberg het hud-scherm
*[idx] 47 [engl] S - screenshot [trans] S - maak een schermfoto
*[idx] 48 [engl] U - toggle ui snow [trans] U - toon/verberg de sneeuw
*[idx] 49 [engl] P - set pause mode [trans] P - pauzeer
*[idx] 50 [engl] T - trick [trans] T - doe een trucje
*[idx] 51 [engl] ESC - abort Race [trans] ESC - breek de race af
*[idx] 52 [engl] SPACE - jump [trans] SPATIEBALK - spring
*[idx] 53 [engl] CRSR Left - turn left [trans] pijltje naar links - ga naar links
*[idx] 54 [engl] CRSR Right - turn right [trans] pijltje naar rechts - ga naar rechts
*[idx] 55 [engl] CRSR Up - accelerate [trans] pijltje omhoog  - versnel
*[idx] 56 [engl] CRSR down - brake [trans] pijltje omlaag - rem af
*[idx] 57 [engl] Keyboard Functions [trans] Toetsoverzicht
*[idx] 65 [engl] Press any key to return to the main menu [trans] Druk op een toets om terug te keren naar het hoofdmenu

*[idx] 58 [engl] Select your player name: [trans] Voer een spelernaam in:
*[idx] 59 [engl] Select a character: [trans] Kies een personage:
*[idx] 60 [engl] Enter [trans] Invoeren
*[idx] 61 [engl] Register a new player [trans] Nieuwe speler registreren

*[idx] 62 [engl] Highscore list [trans] Topscores
*[idx] 63 [engl] No entries for this race [trans] Nog geen vermeldingen
*[idx] 64 [engl] Back [trans] Terug

*[idx] 66 [engl] Enter a name for the new player and select an avatar: [trans] Voer een naam in voor de nieuwe speler en kies een foto:

*[idx] 67 [engl] Loading resources, [trans] Bezig met laden
*[idx] 68 [engl] please wait [trans] van spelelementen...

*[idx] 69 [engl] Mirror track: Off [trans] Spiegelbeeld: uit
*[idx] 70 [engl] Mirror track: On [trans] Spiegelbeeld: aan

*[idx] 71 [engl] Light: Sunny [trans] Licht: zonnig
*[idx] 72 [engl] Light: Cloudy [trans] Licht: bewolkt
*[idx] 73 [engl] Light: Evening [trans] Licht: avond
*[idx] 74 [engl] Light: Night [trans] Licht: nacht

*[idx] 75 [engl] Snow: No [trans] Sneeuw: geen
*[idx] 76 [engl] Snow: A little [trans] Sneeuw: een beetje
*[idx] 77 [engl] Snow: Some [trans] Sneeuw: veel
*[idx] 78 [engl] Snow: A lot [trans] Sneeuw: erg veel

*[idx] 79 [engl] Wind: No [trans] Wind: geen
*[idx] 80 [engl] Wind: Breeze [trans] Wind: briesje
*[idx] 81 [engl] Wind: Strong [trans] Wind: sterk
*[idx] 82 [engl] Wind: Blustery [trans] Wind: erg sterk

*[idx] 83 [engl] Randomize settings [trans] Instellingen willekeurig toepassen

*[idx] 84 [engl] Score [trans] Score
*[idx] 85 [engl] Herring [trans] Haringen
*[idx] 86 [engl] Time [trans] Tijd
*[idx] 87 [engl] Path length [trans] Routelengte
*[idx] 88 [engl] Average speed [trans] Gemiddelde snelheid
*[idx] 89 [engl] Position [trans] Positie
*[idx] 90 [engl] in highscore list [trans] topscore behaald
